^D:\C++\LABEXERCISE3\DTB.MADLIBWEDDINGDAY\DTB.MADLIBWEDDINGDAY\MAIN.CPP
D:\C++\LABEXERCISE3\DTB.MADLIBWEDDINGDAY\DTB.MADLIBWEDDINGDAY\DEBUG\VC141.PDB
D:\C++\LABEXERCISE3\DTB.MADLIBWEDDINGDAY\DTB.MADLIBWEDDINGDAY\DEBUG\VC141.IDB
D:\C++\LABEXERCISE3\DTB.MADLIBWEDDINGDAY\DTB.MADLIBWEDDINGDAY\DEBUG\MAIN.OBJ
